{
   "name" : "example",
   "views" : [
     {
       "title" : "m1",
       "widgets" : [
         {
           "type" : "image",
           "position" : {"x" : 0, "y" : 0},
           "size" : {"width" : 1, "height" : 1},
           "source" : {
             "id" : "assetID",
             "url" : "data/images/degewo3.jpg"
           }
        },
        {
          "type" : "button",
          "position" : {"x" : 0, "y" : 0.85, "z" : 0.001},
          "size" : {"width" :0.33, "height" :0.15},
          "background" : "#0288d1bb",
          "title" : "Motiv 1",
          "icon" : "data/images/photo.svg",
          "action" : { "type" : "change_view", "value" : "m1" }
        },
        {
          "type" : "button",
          "position" : {"x" : 0.33, "y" : 0.85, "z" : 0.001},
          "size" : {"width" :0.33, "height" :0.15},
          "background" : "#e0e0e0bb",
          "title" : "Motiv 2",
          "icon" : "data/images/photo.svg",
          "action" : { "type" : "change_view", "value" : "m2" }
        },
        {
          "type" : "button",
          "position" : {"x" : 0.66, "y" : 0.85, "z" : 0.001},
          "size" : {"width" :0.33, "height" :0.15},
          "background" : "#e0e0e0bb",
          "title" : "Motiv 3",
          "icon" : "data/images/photo.svg",
          "action" : { "type" : "change_view", "value" : "m3" }
        }
      ]
    },
    {
      "title" : "m2",
      "widgets" : [
        {
          "type" : "image",
          "position" : {"x" : 0, "y" : 0},
          "size" : {"width" : 1, "height" : 1},
          "source" : {
            "id" : "assetID2",
            "url" : "data/images/degewo2.jpg"
          }
       },
       {
         "type" : "button",
         "position" : {"x" : 0, "y" : 0.85, "z" : 0.001},
         "size" : {"width" :0.33, "height" :0.15},
         "background" : "#e0e0e0bb",
         "title" : "Motiv 1",
         "icon" : "data/images/photo.svg",
         "action" : { "type" : "change_view", "value" : "m1" }
       },
       {
         "type" : "button",
         "position" : {"x" : 0.33, "y" : 0.85, "z" : 0.001},
         "size" : {"width" :0.33, "height" :0.15},
         "background" : "#0288d1bb",
         "title" : "Motiv 2",
         "icon" : "data/images/photo.svg",
         "action" : { "type" : "change_view", "value" : "m2" }
       },
       {
         "type" : "button",
         "position" : {"x" : 0.66, "y" : 0.85, "z" : 0.001},
         "size" : {"width" :0.33, "height" :0.15},
         "background" : "#e0e0e0bb",
         "title" : "Motiv 3",
         "icon" : "data/images/photo.svg",
         "action" : { "type" : "change_view", "value" : "m3" }
       }
     ]
   },
   {
     "title" : "m3",
     "widgets" : [
       {
         "type" : "image",
         "position" : {"x" : 0, "y" : 0},
         "size" : {"width" : 1, "height" : 1},
         "source" : {
           "id" : "assetID3",
           "url" : "data/images/degewo1.jpeg"
         }
      },
      {
        "type" : "button",
        "position" : {"x" : 0, "y" : 0.85, "z" : 0.001},
        "size" : {"width" :0.33, "height" :0.15},
        "background" : "#e0e0e0bb",
        "title" : "Motiv 1",
        "icon" : "data/images/photo.svg",
        "action" : { "type" : "change_view", "value" : "m1" }
      },
      {
        "type" : "button",
        "position" : {"x" : 0.33, "y" : 0.85, "z" : 0.001},
        "size" : {"width" :0.33, "height" :0.15},
        "background" : "#e0e0e0bb",
        "title" : "Motiv 2",
        "icon" : "data/images/photo.svg",
        "action" : { "type" : "change_view", "value" : "m2" }
      },
      {
        "type" : "button",
        "position" : {"x" : 0.66, "y" : 0.85, "z" : 0.001},
        "size" : {"width" :0.33, "height" :0.15},
        "background" : "#0288d1bb",
        "title" : "Motiv 3",
        "icon" : "data/images/photo.svg",
        "action" : { "type" : "change_view", "value" : "m3" }
      }
    ]
  }
  ]
}
